{
  "Description": "Description",
  "Fedora CoreOS Release Notes": "Fedora CoreOS Release Notes",
  "Fedora CoreOS is created by a team in the Fedora Project community called the CoreOS Working Group. It is comprised of official members who have decision-making powers, as well as other contributors. Learn more about this group and how you can get involved on the CoreOS Working Group website.": "Fedora CoreOS is created by a team in the Fedora Project community called the CoreOS Working Group. It is comprised of official members who have decision-making powers, as well as other contributors. Learn more about this group and how you can get involved on the CoreOS Working Group website.",
  "See the major changes and components version for latest Fedora CoreOS releases.": "See the major changes and components version for latest Fedora CoreOS releases."
}