{
  "Community Support": "Community Support",
  "Documentation": "Documentation",
  "Download the latest version of Fedora IoT Edition for your architecture here.": "Download the latest version of Fedora IoT Edition for your architecture here."
}