{
  "Ask Fedora": "Ask Fedora",
  "Become a Fedora contributor": "Become a Fedora contributor",
  "Community-maintained spaces": "Community-maintained spaces",
  "Fedora Chat": "Fedora Chat",
  "Fedora Discord": "Fedora Discord",
  "Fedora Discussion": "Fedora Discussion",
  "Officially-supported Fedora community spaces": "Officially-supported Fedora community spaces",
  "Once you've got Fedora installed and running, why not join and contribute to one of our online communities?": "Once you've got Fedora installed and running, why not join and contribute to one of our online communities?"
}