{
  "A modern media player, using the gstreamer plugin framework.": "A modern media player, using the gstreamer plugin framework.",
  "Are you a downloader? Use Transmission to get new versions of Fedora Cinnamon Desktop!": "Are you a downloader? Use Transmission to get new versions of Fedora Cinnamon Desktop!",
  "Cinnamon Settings": "Cinnamon Settings",
  "Cinnamon is a Linux desktop which provides advanced innovative features and a traditional user experience. The desktop layout is similar to GNOME 2. The underlying technology is forked from GNOME Shell. The emphasis is put on making users feel at home and providing them with an easy to use and comfortable desktop experience.\n\nCinnamon is a popular desktop alternative to GNOME 3 and this spin provides the option to quickly try and install this desktop.": "Cinnamon is a Linux desktop which provides advanced innovative features and a traditional user experience. The desktop layout is similar to GNOME 2. The underlying technology is forked from GNOME Shell. The emphasis is put on making users feel at home and providing them with an easy to use and comfortable desktop experience.\n\nCinnamon is a popular desktop alternative to GNOME 3 and this spin provides the option to quickly try and install this desktop.",
  "Download Now": "Download Now",
  "Explore the World Wide Web with Firefox, the full featured web browser.": "Explore the World Wide Web with Firefox, the full featured web browser.",
  "Fedora Cinnamon Image": "Fedora Cinnamon Image",
  "Fedora Cinnamon Spin": "Fedora Cinnamon Spin",
  "Fedora Cinnamon ships GNOME Terminal, the gateway to the real power of any UNIX/Linux machine.": "Fedora Cinnamon ships GNOME Terminal, the gateway to the real power of any UNIX/Linux machine.",
  "GNOME Terminal": "GNOME Terminal",
  "Going Online": "Going Online",
  "Hexchat": "Hexchat",
  "LibreOffice is an integrated office suite. It utilizes free and open standards for its document formats and components.": "LibreOffice is an integrated office suite. It utilizes free and open standards for its document formats and components.",
  "Mozilla Thunderbird is a standalone mail and newsgroup client. Organize your schedule with the included Lightning calendar application.": "Mozilla Thunderbird is a standalone mail and newsgroup client. Organize your schedule with the included Lightning calendar application.",
  "Multimedia": "Multimedia",
  "No need to know cryptic commands and config files. Click the options you like to change and choose the settings that make you happy.": "No need to know cryptic commands and config files. Click the options you like to change and choose the settings that make you happy.",
  "Office & Productivity Suite": "Office & Productivity Suite",
  "Screenshot of Fedora Cinnamon desktop": "Screenshot of Fedora Cinnamon desktop",
  "Shotwell": "Shotwell",
  "Shotwell is an easy-to-use, fast photo organizer and editor.": "Shotwell is an easy-to-use, fast photo organizer and editor.",
  "Stay connected with your friends and colleagues using Hexchat, an easy to use IRC client.": "Stay connected with your friends and colleagues using Hexchat, an easy to use IRC client.",
  "Transmission": "Transmission",
  "Universal messaging client. Communicate with the world via IRC, AIM, MSN, Yahoo and other instant messaging systems.": "Universal messaging client. Communicate with the world via IRC, AIM, MSN, Yahoo and other instant messaging systems.",
  "Utilities & Configuration": "Utilities & Configuration",
  "We're so glad you've decided to give Fedora Cinnamon Spin a try. We know you'll love it.": "We're so glad you've decided to give Fedora Cinnamon Spin a try. We know you'll love it.",
  "Xfburn": "Xfburn",
  "Xfburn is a simple CD/DVD burning tool.": "Xfburn is a simple CD/DVD burning tool."
}